mx/prueba/dataaccess/CatalogoPrecioRepository.class
mx/prueba/dataaccess/documents/CatalogoPrecio.class
mx/prueba/PruebaApplication.class
mx/prueba/service/Calculadora.class
mx/prueba/exception/PruebaTecnicaException.class
mx/prueba/controller/PrestamoEvaluoController.class
